<?xml version="1.0" standalone="no"?>
<!DOCTYPE svg PUBLIC "-//W3C//DTD SVG 20010904//EN"
 "http://www.w3.org/TR/2001/REC-SVG-20010904/DTD/svg10.dtd">
<svg version="1.0" xmlns="http://www.w3.org/2000/svg"
 width="648.000000pt" height="648.000000pt" viewBox="0 0 648.000000 648.000000"
 preserveAspectRatio="xMidYMid meet">
<metadata>
Created by potrace 1.11, written by Peter Selinger 2001-2013
</metadata>
<g transform="translate(0.000000,648.000000) scale(0.100000,-0.100000)"
fill="#000000" stroke="none">
<path d="M3317 6434 c-1 -1 -42 -5 -92 -8 -49 -4 -101 -8 -115 -10 -14 -3 -47
-7 -75 -11 -184 -22 -407 -80 -597 -154 -91 -36 -335 -162 -348 -180 -3 -4
-25 -21 -49 -38 -158 -115 -288 -290 -331 -446 -7 -26 -16 -49 -19 -51 -3 -2
-29 -7 -58 -10 -51 -6 -191 -40 -228 -56 -79 -33 -201 -95 -213 -106 -7 -8
-17 -14 -21 -14 -4 0 -17 -8 -29 -17 -11 -10 -30 -25 -42 -33 -42 -28 -146
-135 -199 -205 -94 -124 -168 -303 -188 -453 -4 -32 -7 -255 -8 -497 l0 -440
27 -55 c37 -75 78 -117 151 -154 l62 -31 0 -890 1 -890 44 -80 c23 -44 56
-104 72 -133 60 -111 88 -135 155 -130 46 3 86 42 132 129 18 35 52 100 75
143 l41 79 0 881 c0 873 0 881 20 887 11 3 29 3 40 1 20 -3 20 -11 20 -885 l0
-881 28 -55 c15 -31 54 -103 85 -160 67 -123 94 -145 162 -136 66 8 80 26 200
261 l46 91 0 877 c-1 958 -5 900 54 887 l25 -6 1 -880 0 -880 74 -143 c41 -78
84 -153 95 -166 43 -50 104 -59 157 -24 24 16 89 115 85 128 -1 3 8 19 20 36
13 17 38 64 57 103 l34 71 0 817 c1 1067 -1 963 17 963 28 0 97 41 133 79 19
20 47 61 61 91 l26 55 0 445 c0 394 -5 536 -20 560 -2 4 -7 22 -10 41 -9 51
-54 165 -92 233 -106 187 -271 340 -477 441 -43 22 -85 40 -94 41 -9 2 -25 7
-37 13 -11 5 -33 13 -50 17 -16 4 -32 8 -35 9 -25 6 -89 19 -102 20 -10 2 -22
3 -28 4 -17 2 -11 26 20 85 64 119 181 225 358 325 41 22 80 41 87 41 7 0 15
4 17 8 3 9 199 84 268 102 55 15 56 15 155 39 77 18 119 26 195 37 19 2 51 7
70 9 173 25 579 25 710 0 14 -2 45 -7 70 -9 49 -6 61 -8 178 -32 289 -58 589
-193 762 -343 271 -235 257 -541 -35 -776 -28 -22 -51 -43 -53 -47 -2 -5 -9
-8 -15 -8 -6 0 -18 -6 -26 -14 -23 -21 -282 -148 -294 -144 -1 0 -33 -9 -72
-21 -89 -28 -223 -57 -300 -66 -33 -4 -69 -9 -80 -11 -11 -2 -87 -7 -170 -9
-193 -7 -208 -10 -280 -45 -142 -69 -226 -207 -230 -379 -4 -168 71 -313 202
-390 74 -42 109 -50 273 -56 80 -3 163 -7 185 -9 63 -8 117 -15 160 -22 48 -7
204 -43 225 -51 8 -4 17 -7 20 -8 55 -14 188 -68 264 -107 162 -83 310 -218
370 -339 40 -79 38 -92 -17 -103 -97 -19 -266 -138 -318 -224 -13 -20 -25 -39
-28 -42 -6 -5 -20 -33 -41 -82 -18 -43 -31 -110 -32 -162 -2 -94 47 -146 140
-146 l39 0 0 -172 c0 -95 3 -194 7 -220 14 -90 62 -156 149 -204 l52 -29 220
0 c213 0 221 1 268 24 61 32 119 94 142 154 15 40 18 80 19 247 l1 200 38 0
c50 0 102 22 121 52 9 14 17 45 19 69 3 39 0 68 -17 147 -3 12 -20 53 -38 90
-67 138 -226 263 -388 307 l-55 15 -13 53 c-19 81 -85 205 -153 287 -141 169
-321 286 -609 395 -93 35 -319 87 -435 100 -124 14 -153 16 -283 19 -119 4
-137 7 -168 28 -109 72 -106 274 5 337 35 19 59 22 178 26 129 4 206 9 278 20
17 2 50 7 75 10 25 4 61 11 80 15 19 5 51 12 70 15 39 7 101 26 205 62 39 13
79 27 90 30 11 4 49 21 85 40 36 18 69 33 73 33 4 0 13 4 20 10 7 5 53 36 102
69 199 131 341 312 390 501 23 84 23 225 2 310 -50 193 -204 385 -417 519 -36
22 -70 44 -75 48 -6 5 -35 20 -65 35 -228 112 -447 181 -705 223 -63 11 -161
23 -245 31 -47 5 -439 12 -443 8z m-1338 -1148 c47 -11 136 -37 156 -45 11 -5
38 -17 60 -26 73 -32 202 -124 259 -186 51 -54 102 -126 134 -186 l12 -21
-791 0 -790 0 7 21 c23 74 171 240 271 304 64 41 164 91 193 97 3 1 10 4 15 7
8 5 100 28 170 42 27 6 274 0 304 -7z m668 -731 l22 -25 -2 -395 c-2 -363 -3
-396 -20 -412 -17 -17 -65 -18 -836 -19 -775 -1 -819 0 -842 17 l-24 18 -1
397 c-1 485 -17 442 167 446 68 2 437 2 819 1 l695 -2 22 -26z m-820 -1947 c0
-523 -3 -860 -9 -872 -31 -58 -33 4 -33 862 0 758 1 858 15 863 8 4 18 5 21 3
3 -2 6 -387 6 -856z m-602 -5 c0 -472 -4 -864 -9 -871 -29 -45 -31 16 -31 868
l-1 860 21 0 21 0 -1 -857z m1202 -2 c0 -473 -3 -865 -8 -873 -7 -10 -11 -10
-21 0 -10 10 -13 192 -13 865 -1 468 0 855 3 860 2 4 11 7 21 7 18 0 19 -34
18 -859z m2823 366 c40 -8 78 -22 111 -41 46 -26 109 -82 109 -96 0 -5 3 -10
8 -10 4 0 12 -11 19 -25 l11 -25 -344 0 -343 0 20 34 c73 124 248 194 409 163z
m105 -617 c0 -151 -3 -182 -16 -196 -23 -23 -325 -23 -348 0 -12 13 -15 48
-16 183 -1 93 1 174 3 181 3 9 50 12 191 12 l186 0 0 -180z"/>
</g>
</svg>
